Biostat 203B Homework 5 / Logistic regression with enet
…
Engine-Specific Arguments:
  standardize = FALSE

Computational engine: glmnet 

# Define the grid
param_grid <- grid_regular(
  penalty(range = range(-6, 2)),
  mixture(range = range(0, 1)),
  levels = c(100, 5)
) |> 
  print()

# A tibble: 500 × 2
      penalty mixture
        <dbl>   <dbl>
 1 0.000001         0
 2 0.00000120       0
 3 0.00000145       0
 4 0.00000175       0
 5 0.00000210       0
 6 0.00000254       0
 7 0.00000305       0
 8 0.00000368       0
 9 0.00000443       0
10 0.00000534       0
# ℹ 490 more rows
…
#visualize CV results
logit_fit |>
  collect_metrics() |>
  filter(.metric == "roc_auc") |>
  print(width = Inf) |> 
  ggplot(mapping = aes(x = penalty, y = mean, color = factor(mixture), group = factor(mixture))) +  
  geom_point() +
  geom_line() +
  labs(x = "Penalty (λ)", y = "Cross-Validation AUC", color = "Mixture (α)") +
  scale_x_log10() +
  theme_minimal()

# A tibble: 500 × 8
      penalty mixture .metric .estimator  mean     n std_err
        <dbl>   <dbl> <chr>   <chr>      <dbl> <int>   <dbl>
 1 0.000001         0 roc_auc binary     0.608     5 0.00290
 2 0.00000120       0 roc_auc binary     0.608     5 0.00290
 3 0.00000145       0 roc_auc binary     0.608     5 0.00290
 4 0.00000175       0 roc_auc binary     0.608     5 0.00290
 5 0.00000210       0 roc_auc binary     0.608     5 0.00290
 6 0.00000254       0 roc_auc binary     0.608     5 0.00290
 7 0.00000305       0 roc_auc binary     0.608     5 0.00290
 8 0.00000368       0 roc_auc binary     0.608     5 0.00290
 9 0.00000443       0 roc_auc binary     0.608     5 0.00290
10 0.00000534       0 roc_auc binary     0.608     5 0.00290
   .config               
   <chr>                 
 1 Preprocessor1_Model001
 2 Preprocessor1_Model002
 3 Preprocessor1_Model003
 4 Preprocessor1_Model004
 5 Preprocessor1_Model005
 6 Preprocessor1_Model006
 7 Preprocessor1_Model007
 8 Preprocessor1_Model008
 9 Preprocessor1_Model009
10 Preprocessor1_Model010
# ℹ 490 more rows
…
